project1
…
Now we will test that the acsFunction works as intended. This will be done by giving it different inputs to ensure that all exceptions are handled properly. More tests were done than shown below throughout the coding process, but the ones below show a good picture.

## Test includes values different than function defaults for each input and tests time variable formatting
acsFunction(year = 2019, categoricalVar = c("HISPEED", "SCH"), numericalVar = c("JWAP"), geography = "region", geo_code = "01")

Warning: The `x` argument of `as_tibble.matrix()` must have unique column names if
`.name_repair` is omitted as of tibble 2.0.0.
ℹ Using compatibility `.name_repair`.

Warning: The `value` argument of `names<-()` must be a character vector as of tibble
3.0.0.

# A tibble: 566,977 × 4
   PWGTP  JWAP HISPEED                                        SCH               
   <dbl> <dbl> <fct>                                          <fct>             
 1    10     0 N/A (GQ/vacant/no paid access to the internet) No, has not atten…
 2    11     0 N/A (GQ/vacant/no paid access to the internet) Yes, public schoo…
 3    33     0 N/A (GQ/vacant/no paid access to the internet) No, has not atten…
 4    80     0 N/A (GQ/vacant/no paid access to the internet) Yes, private scho…
 5    37     0 N/A (GQ/vacant/no paid access to the internet) No, has not atten…
 6    77     0 N/A (GQ/vacant/no paid access to the internet) No, has not atten…
 7    78     0 N/A (GQ/vacant/no paid access to the internet) Yes, public schoo…
 8    71     0 N/A (GQ/vacant/no paid access to the internet) No, has not atten…
 9    17     0 N/A (GQ/vacant/no paid access to the internet) Yes, public schoo…
10    73     0 N/A (GQ/vacant/no paid access to the internet) Yes, public schoo…
# ℹ 566,967 more rows

## Tests function when only some inputs are specified
acsFunction(numericalVar = c("JWMNP", "GASP"), geography = "division", geo_code = "5")

# A tibble: 676,726 × 4
   PWGTP JWMNP  GASP SEX  
   <dbl> <dbl> <dbl> <fct>
 1    42     0     3 Male 
 2    32     0     3 Male 
 3    45     0     3 Male 
 4    41     0     3 Male 
 5   119     5     3 Male 
 6     6     0     3 Male 
 7    25     0     3 Male 
 8    59     0     3 Male 
 9    70     0     3 Male 
10     7     0     3 Male 
# ℹ 676,716 more rows
…
    return(acsTibbleSummary)
}

Now we will test that the acsSummary function works as intended. This test makes sure that there are columns for the categorical variable counts along with a column for the mean & sd of numerical variables. It also tests that users are able to specify to summarize only specific variables from the original tibble.

test_tibble <- acsFunction(2021, categoricalVar = c("HHL", "FER"), numericalVar = c("JWAP", "GASP"))
testsummary <- acsSummary(classcensus = test_tibble, numericalVar = c("JWAP"), categoricalVar = ("HHL"))

Joining with `by = join_by(PWGTP)`

testsummary

# A tibble: 608 × 9
   PWGTP `HHL_N/A (GQ/vacant)` `HHL_Other Language` `HHL_English Only`
   <dbl>                 <int>                <int>              <int>
 1     1                    34                    0                  0
 2     2                    40                    1                  0
 3     3                    36                    1                  0
 4     4                    68                    2                  0
 5     5                    89                    2                  3
 6     6                    99                    6                  6
 7     7                    74                   15                  5
 8     8                    62                   16                 13
 9     9                    49                   14                 17
10    10                    61                   23                 21
# ℹ 598 more rows
# ℹ 5 more variables: HHL_Spanish <int>,
#   `HHL_Asian and Pacific Island languages` <int>,
#   `HHL_Other Indo-European languages` <int>, JWAP_mean <dbl>, JWAP_sd <dbl>
…
